real:0.940	user:0.932
real:1.219	user:1.208
real:1.512	user:1.504
real:1.801	user:1.792
real:2.031	user:2.024
real:0.411	user:0.408
real:0.424	user:0.416
real:0.483	user:0.480
real:0.575	user:0.572
real:0.681	user:0.676
real:0.884	user:0.880
real:1.098	user:1.092
real:1.388	user:1.388
real:1.619	user:1.612
real:1.869	user:1.864
real:0.216	user:0.212
real:0.386	user:0.380
real:0.400	user:0.396
real:0.451	user:0.444
real:0.486	user:0.480
