real:0.368	user:0.364
real:0.474	user:0.460
real:0.585	user:0.580
real:0.697	user:0.692
real:0.809	user:0.800
real:0.160	user:0.156
real:0.167	user:0.160
real:0.188	user:0.184
real:0.223	user:0.220
real:0.263	user:0.260
real:0.341	user:0.340
real:0.442	user:0.436
real:0.533	user:0.528
real:0.621	user:0.616
real:0.717	user:0.712
real:0.087	user:0.080
real:0.150	user:0.144
real:0.155	user:0.152
real:0.178	user:0.172
real:0.188	user:0.184
