real:0.232	user:0.224
real:0.298	user:0.292
real:0.367	user:0.364
real:0.436	user:0.424
real:0.489	user:0.476
real:0.102	user:0.096
real:0.141	user:0.136
real:0.123	user:0.120
real:0.139	user:0.136
real:0.163	user:0.160
real:0.212	user:0.208
real:0.263	user:0.256
real:0.330	user:0.332
real:0.385	user:0.380
real:0.446	user:0.440
real:0.054	user:0.048
real:0.095	user:0.088
real:0.100	user:0.092
real:0.107	user:0.104
real:0.117	user:0.112
