real:0.917	user:0.912
real:1.231	user:1.228
real:1.485	user:1.480
real:1.750	user:1.740
real:1.982	user:1.976
real:0.425	user:0.424
real:0.442	user:0.440
real:0.476	user:0.472
real:0.572	user:0.568
real:0.737	user:0.736
real:0.859	user:0.856
real:1.080	user:1.076
real:1.345	user:1.344
real:1.618	user:1.616
real:1.813	user:1.812
real:0.233	user:0.232
real:0.310	user:0.308
real:0.309	user:0.308
real:0.402	user:0.400
real:0.441	user:0.440
