Program
  List
    Function
      IntType
      Id_Func_Decl ID="a"
      List
        Func_Par
          IntType
          Id_Var_Decl ID="b"
      BlockStmt
        List
          Assign
            Id_Var_Use ID="b"
            Add
              Id_Var_Use ID="b"
              Int_Numeral INT_NUMERAL="1"
          Return
            Opt
              Id_Var_Use ID="b"
    Function
      IntType
      Id_Func_Decl ID="main"
      List
      BlockStmt
        List
          Var_Decl
            IntType
            Id_Var_Decl ID="f"
            Opt
              Func_Call
                Id_Func_Use ID="a"
                List
                  Int_Numeral INT_NUMERAL="5"
          Return
            Opt
              Int_Numeral INT_NUMERAL="0"
